{
  "name": "brew",
  "plural": "brews",
  "base": "PersistedModel",
  "idInjection": true,
  "options": {
    "validateUpsert": true
  },
  "properties": {
    "coffee": {
      "type": "string",
      "required": true
    },
    "time": {
      "type": "date",
      "required": true
    },
    "weight": {
      "type": "number"
    },
    "unit": {
      "type": "string"
    },
    "brew_time": {
      "type": "number"
    },
    "fine_unit": {
      "type": "number"
    },
    "tool": {
      "type": "string"
    },
    "createdAt": {
      "type": "date"
    },
    "lastModifiedAt": {
      "type": "date"
    }
  },
  "validations": [],
  "relations": {},
  "acls": [],
  "methods": {}
}
