{
  "_meta": {
    "sources": [
      "loopback/common/models",
      "loopback/server/models",
      "../common/models",
      "./models"
    ],
    "mixins": [
      "loopback/common/mixins",
      "loopback/server/mixins",
      "../common/mixins",
      "./mixins"
    ]
  },
  "User": {
    "dataSource": "postgres"
  },
  "AccessToken": {
    "dataSource": "postgres",
    "public": false
  },
  "ACL": {
    "dataSource": "postgres",
    "public": false
  },
  "RoleMapping": {
    "dataSource": "postgres",
    "public": false,
    "options": {
      "strictObjectIDCoercion": true
    }
  },
  "Role": {
    "dataSource": "postgres",
    "public": false
  },
  "recipe": {
    "dataSource": "postgres",
    "public": true
  },
  "comment": {
    "dataSource": "postgres",
    "public": true
  },
  "entry": {
    "dataSource": "postgres",
    "public": true
  },
  "blog": {
    "dataSource": "postgres",
    "public": true
  },
  "video": {
    "dataSource": "postgres",
    "public": true
  },
  "brew": {
    "dataSource": "postgres",
    "public": true
  },
  "yelp": {
    "dataSource": null,
    "public": true
  }
}
